{
  "implemented": true,
  "name": "Shiftry",
  "nationalPokedexNumber": 275,
  "primaryType": "grass",
  "secondaryType": "dark",
  "abilities": [
    "chlorophyll",
    "windrider",
    "h:pickpocket"
  ],
  "drops": {
    "amount": 4,
    "entries": [
      {
        "item": "minecraft:dark_oak_sapling",
        "quantityRange": "0-3"
      },
      {
        "item": "cobblemon:tanga_berry",
        "percentage": 10.0
      }
    ]
  },
  "baseStats": {
    "hp": 90,
    "attack": 100,
    "defence": 60,
    "special_attack": 90,
    "special_defence": 60,
    "speed": 80
  },
  "catchRate": 45,
  "maleRatio": 0.5,
  "shoulderMountable": false,
  "baseExperienceYield": 240,
  "experienceGroup": "medium_slow",
  "eggCycles": 15,
  "eggGroups": [
    "field",
    "grass"
  ],
  "moves": [
    "1:absorb",
    "1:aircutter",
    "1:astonish",
    "1:beatup",
    "1:explosion",
    "1:extrasensory",
    "1:fakeout",
    "1:feintattack",
    "1:growth",
    "1:harden",
    "1:hurricane",
    "1:leafblade",
    "1:megadrain",
    "1:nastyplot",
    "1:naturepower",
    "1:payback",
    "1:pound",
    "1:razorleaf",
    "1:rollout",
    "1:suckerpunch",
    "1:sunnyday",
    "1:swagger",
    "1:synthesis",
    "1:tackle",
    "1:torment",
    "1:whirlwind",
    "20:leaftornado",
    "44:leafstorm",
    "tm:aerialace",
    "tm:aircutter",
    "tm:airslash",
    "tm:amnesia",
    "tm:assurance",
    "tm:attract",
    "tm:beatup",
    "tm:bodyslam",
    "tm:bounce",
    "tm:brickbreak",
    "tm:brutalswing",
    "tm:bulletseed",
    "tm:captivate",
    "tm:chillingwater",
    "tm:confide",
    "tm:confuseray",
    "tm:curse",
    "tm:cut",
    "tm:darkpulse",
    "tm:defog",
    "tm:dig",
    "tm:doubleedge",
    "tm:doubleteam",
    "tm:embargo",
    "tm:endeavor",
    "tm:endure",
    "tm:energyball",
    "tm:explosion",
    "tm:facade",
    "tm:falseswipe",
    "tm:flash",
    "tm:fling",
    "tm:focusblast",
    "tm:foulplay",
    "tm:frustration",
    "tm:gigadrain",
    "tm:gigaimpact",
    "tm:grassknot",
    "tm:grassyglide",
    "tm:grassyterrain",
    "tm:heatwave",
    "tm:hex",
    "tm:hiddenpower",
    "tm:hurricane",
    "tm:hyperbeam",
    "tm:icywind",
    "tm:imprison",
    "tm:knockoff",
    "tm:lashout",
    "tm:leafblade",
    "tm:leafstorm",
    "tm:lowkick",
    "tm:lowsweep",
    "tm:magicalleaf",
    "tm:megakick",
    "tm:nastyplot",
    "tm:naturalgift",
    "tm:naturepower",
    "tm:payback",
    "tm:petalblizzard",
    "tm:powerswap",
    "tm:poweruppunch",
    "tm:protect",
    "tm:psychup",
    "tm:raindance",
    "tm:rest",
    "tm:retaliate",
    "tm:return",
    "tm:revenge",
    "tm:reversal",
    "tm:rockslide",
    "tm:rocksmash",
    "tm:rocktomb",
    "tm:round",
    "tm:scaryface",
    "tm:screech",
    "tm:secretpower",
    "tm:seedbomb",
    "tm:selfdestruct",
    "tm:shadowball",
    "tm:silverwind",
    "tm:sleeptalk",
    "tm:snarl",
    "tm:snore",
    "tm:solarbeam",
    "tm:solarblade",
    "tm:spite",
    "tm:strength",
    "tm:substitute",
    "tm:sunnyday",
    "tm:swagger",
    "tm:swift",
    "tm:swordsdance",
    "tm:tailwind",
    "tm:takedown",
    "tm:taunt",
    "tm:terablast",
    "tm:thief",
    "tm:throatchop",
    "tm:torment",
    "tm:toxic",
    "tm:toxicspikes",
    "tm:trailblaze",
    "tm:upperhand",
    "tm:uproar",
    "tm:vacuumwave",
    "tm:weatherball",
    "tm:willowisp",
    "tm:xscissor",
    "tutor:aircutter",
    "tutor:bodyslam",
    "tutor:bounce",
    "tutor:darkpulse",
    "tutor:defensecurl",
    "tutor:defog",
    "tutor:doubleedge",
    "tutor:endure",
    "tutor:explosion",
    "tutor:foulplay",
    "tutor:furycutter",
    "tutor:gigadrain",
    "tutor:grassyglide",
    "tutor:headbutt",
    "tutor:icywind",
    "tutor:knockoff",
    "tutor:lashout",
    "tutor:lowkick",
    "tutor:megakick",
    "tutor:mimic",
    "tutor:mudslap",
    "tutor:ominouswind",
    "tutor:psychup",
    "tutor:rollout",
    "tutor:seedbomb",
    "tutor:selfdestruct",
    "tutor:sleeptalk",
    "tutor:snore",
    "tutor:spite",
    "tutor:substitute",
    "tutor:suckerpunch",
    "tutor:swagger",
    "tutor:swift",
    "tutor:swordsdance",
    "tutor:synthesis",
    "tutor:tailwind",
    "tutor:throatchop",
    "tutor:twister",
    "tutor:worryseed"
  ],
  "labels": [
    "gen3"
  ],
  "pokedex": [
    "cobblemon.species.shiftry.desc"
  ],
  "preEvolution": "nuzleaf",
  "evolutions": [],
  "baseScale": 1,
  "hitbox": {
    "width": 1,
    "height": 1,
    "fixed": false
  },
  "baseFriendship": 50,
  "evYield": {
    "hp": 0,
    "attack": 3,
    "defence": 0,
    "special_attack": 0,
    "special_defence": 0,
    "speed": 0
  },
  "height": 13,
  "weight": 596,
  "aspects": [],
  "cannotDynamax": false
}
